{
"frames": {
	"explosion.gif~c200_000.png": {
		"frame": {"x":0, "y":402, "w":175, "h":200},
		"spriteSourceSize": {"x":17,"y":0,"w":200,"h":200},
		"sourceSize": {"w":200,"h":200}
	},
	"explosion.gif~c200_001.png": {
		"frame": {"x":184, "y":0, "w":164, "h":195},
		"spriteSourceSize": {"x":19,"y":0,"w":200,"h":200},
		"sourceSize": {"w":200,"h":200}
	},
	"explosion.gif~c200_002.png": {
		"frame": {"x":349, "y":0, "w":145, "h":167},
		"spriteSourceSize": {"x":19,"y":14,"w":200,"h":200},
		"sourceSize": {"w":200,"h":200}
	},
	"explosion.gif~c200_003.png": {
		"frame": {"x":495, "y":0, "w":139, "h":158},
		"spriteSourceSize": {"x":19,"y":8,"w":200,"h":200},
		"sourceSize": {"w":200,"h":200}
	},
	"explosion.gif~c200_004.png": {
		"frame": {"x":495, "y":392, "w":128, "h":142},
		"spriteSourceSize": {"x":22,"y":5,"w":200,"h":200},
		"sourceSize": {"w":200,"h":200}
	},
	"explosion.gif~c200_005.png": {
		"frame": {"x":495, "y":535, "w":121, "h":99},
		"spriteSourceSize": {"x":34,"y":5,"w":200,"h":200},
		"sourceSize": {"w":200,"h":200}
	},
	"explosion.gif~c200_006.png": {
		"frame": {"x":134, "y":603, "w":130, "h":45},
		"spriteSourceSize": {"x":31,"y":0,"w":200,"h":200},
		"sourceSize": {"w":200,"h":200}
	},
	"explosion.gif~c200_007.png": {
		"frame": {"x":0, "y":603, "w":133, "h":31},
		"spriteSourceSize": {"x":36,"y":3,"w":200,"h":200},
		"sourceSize": {"w":200,"h":200}
	},
	"explosion.gif~c200_008.png": {
		"frame": {"x":0, "y":635, "w":32, "h":34},
		"spriteSourceSize": {"x":81,"y":138,"w":200,"h":200},
		"sourceSize": {"w":200,"h":200}
	},
	"explosion.gif~c200_009.png": {
		"frame": {"x":347, "y":582, "w":104, "h":94},
		"spriteSourceSize": {"x":34,"y":101,"w":200,"h":200},
		"sourceSize": {"w":200,"h":200}
	},
	"explosion.gif~c200_010.png": {
		"frame": {"x":506, "y":159, "w":122, "h":150},
		"spriteSourceSize": {"x":28,"y":50,"w":200,"h":200},
		"sourceSize": {"w":200,"h":200}
	},
	"explosion.gif~c200_011.png": {
		"frame": {"x":347, "y":392, "w":147, "h":189},
		"spriteSourceSize": {"x":22,"y":11,"w":200,"h":200},
		"sourceSize": {"w":200,"h":200}
	},
	"explosion.gif~c200_012.png": {
		"frame": {"x":176, "y":402, "w":170, "h":197},
		"spriteSourceSize": {"x":19,"y":3,"w":200,"h":200},
		"sourceSize": {"w":200,"h":200}
	},
	"explosion.gif~c200_013.png": {
		"frame": {"x":344, "y":196, "w":161, "h":195},
		"spriteSourceSize": {"x":22,"y":5,"w":200,"h":200},
		"sourceSize": {"w":200,"h":200}
	},
	"explosion.gif~c200_014.png": {
		"frame": {"x":0, "y":201, "w":178, "h":200},
		"spriteSourceSize": {"x":22,"y":0,"w":200,"h":200},
		"sourceSize": {"w":200,"h":200}
	},
	"explosion.gif~c200_015.png": {
		"frame": {"x":0, "y":0, "w":183, "h":200},
		"spriteSourceSize": {"x":17,"y":0,"w":200,"h":200},
		"sourceSize": {"w":200,"h":200}
	},
	"explosion.gif~c200_016.png": {
		"frame": {"x":179, "y":201, "w":164, "h":200},
		"spriteSourceSize": {"x":17,"y":0,"w":200,"h":200},
		"sourceSize": {"w":200,"h":200}
	}

},
"meta": {
	"image": "sprites.png",
	"size": {"w": 635, "h": 677},
	"scale": "1"
}
}